{
    "discretization_data": {
        "cost_circumscribed": 20, 
        "cost_inscribed": 50, 
        "cost_lethal": 100, 
        "cost_possibly_nonfree": 10, 
        "inflation_radius": 0.0, 
        "res": 0.1
    }, 
    "files": {
        "geometry_file": "./04_after_the_feast.svg"
    }, 
    "geometry_scale": 0.1, 
    "things": {
        "entities": [
            {
                "force_pushes_only": true, 
                "geometry": {
                    "from": "file", 
                    "id": "robot_01", 
                    "orientation_id": "robot_01_dir"
                }, 
                "movable_whitelist": [
                    "stool"
                ], 
                "name": "robot_01", 
                "push_only_list": [
                    "stool"
                ], 
                "sensors": [
                    {
                        "type": "omniscient"
                    }
                ], 
                "type": "robot"
            }, 
            {
                "force_pushes_only": true, 
                "geometry": {
                    "from": "file", 
                    "id": "robot_02", 
                    "orientation_id": "robot_02_dir"
                }, 
                "movable_whitelist": [
                    "stool"
                ], 
                "name": "robot_02", 
                "push_only_list": [
                    "stool"
                ], 
                "sensors": [
                    {
                        "type": "omniscient"
                    }
                ], 
                "type": "robot"
            }, 
            {
                "geometry": {
                    "from": "file", 
                    "id": "wall_ext_top"
                }, 
                "name": "wall_ext_top", 
                "type": "wall"
            }, 
            {
                "geometry": {
                    "from": "file", 
                    "id": "wall_ext_bottom"
                }, 
                "name": "wall_ext_bottom", 
                "type": "wall"
            }, 
            {
                "geometry": {
                    "from": "file", 
                    "id": "wall_ext_left"
                }, 
                "name": "wall_ext_left", 
                "type": "wall"
            }, 
            {
                "geometry": {
                    "from": "file", 
                    "id": "wall_ext_right"
                }, 
                "name": "wall_ext_right", 
                "type": "wall"
            }, 
            {
                "geometry": {
                    "from": "file", 
                    "id": "pillar_top"
                }, 
                "name": "pillar_top", 
                "type": "wall"
            }, 
            {
                "geometry": {
                    "from": "file", 
                    "id": "pillar_bottom"
                }, 
                "name": "pillar_bottom", 
                "type": "wall"
            }, 
            {
                "geometry": {
                    "from": "file", 
                    "id": "pillar_left"
                }, 
                "name": "pillar_left", 
                "type": "wall"
            }, 
            {
                "geometry": {
                    "from": "file", 
                    "id": "pillar_right"
                }, 
                "name": "pillar_right", 
                "type": "wall"
            }, 
            {
                "geometry": {
                    "from": "file", 
                    "id": "table_01"
                }, 
                "name": "table_01", 
                "type": "table"
            }, 
            {
                "geometry": {
                    "from": "file", 
                    "id": "table_02"
                }, 
                "name": "table_02", 
                "type": "table"
            }, 
            {
                "geometry": {
                    "from": "file", 
                    "id": "table_03"
                }, 
                "name": "table_03", 
                "type": "table"
            }, 
            {
                "geometry": {
                    "from": "file", 
                    "id": "table_04"
                }, 
                "name": "table_04", 
                "type": "table"
            }, 
            {
                "geometry": {
                    "from": "file", 
                    "id": "table_05"
                }, 
                "name": "table_05", 
                "type": "table"
            }, 
            {
                "geometry": {
                    "from": "file", 
                    "id": "table_06"
                }, 
                "name": "table_06", 
                "type": "table"
            }, 
            {
                "geometry": {
                    "from": "file", 
                    "id": "table_07"
                }, 
                "name": "table_07", 
                "type": "table"
            }, 
            {
                "geometry": {
                    "from": "file", 
                    "id": "table_08"
                }, 
                "name": "table_08", 
                "type": "table"
            }, 
            {
                "geometry": {
                    "from": "file", 
                    "id": "table_09"
                }, 
                "name": "table_09", 
                "type": "table"
            }, 
            {
                "geometry": {
                    "from": "file", 
                    "id": "table_10"
                }, 
                "name": "table_10", 
                "type": "table"
            }, 
            {
                "geometry": {
                    "from": "file", 
                    "id": "table_11"
                }, 
                "name": "table_11", 
                "type": "table"
            }, 
            {
                "geometry": {
                    "from": "file", 
                    "id": "table_12"
                }, 
                "name": "table_12", 
                "type": "table"
            }, 
            {
                "geometry": {
                    "from": "file", 
                    "id": "table_13"
                }, 
                "name": "table_13", 
                "type": "table"
            }, 
            {
                "geometry": {
                    "from": "file", 
                    "id": "table_14"
                }, 
                "name": "table_14", 
                "type": "table"
            }, 
            {
                "geometry": {
                    "from": "file", 
                    "id": "table_15"
                }, 
                "name": "table_15", 
                "type": "table"
            }, 
            {
                "geometry": {
                    "from": "file", 
                    "id": "table_16"
                }, 
                "name": "table_16", 
                "type": "table"
            }
        ], 
        "zones": {
            "goals": [
                {
                    "geometry": {
                        "from": "file", 
                        "id": "goal_01", 
                        "orientation_id": "goal_01_dir"
                    }, 
                    "name": "goal_01"
                }, 
                {
                    "geometry": {
                        "from": "file", 
                        "id": "goal_02", 
                        "orientation_id": "goal_02_dir"
                    }, 
                    "name": "goal_02"
                }
            ]
        }
    }
}