{
    "agents_behaviors": [
        {
            "agent_name": "robot_01", 
            "behavior": {
                "name": "stilman_2005_behavior", 
                "navigation_goals": [
                    {
                        "name": "goal_01"
                    }, 
                    {
                        "name": "goal_02"
                    }
                ], 
                "parameters": {
                    "alpha_for_obstacle_choice_heur": 0.5, 
                    "basic_rotation_moment": 2.0, 
                    "basic_translation_force": 2.0, 
                    "check_new_local_opening_before_global": true, 
                    "collision_check_angular_res": 5.0, 
                    "deactivate_grids_logging": true, 
                    "forbid_rotations": false, 
                    "heuristic_cost_for_traversing_obstacle_in_choice_heur": 2.0, 
                    "manipulation_search_procedure": "BFS", 
                    "neighborhood_for_obstacle_choice_heur": "TAXI", 
                    "robot_rotation_unit_angle": 30.0, 
                    "robot_translation_unit_length": 0.1, 
                    "solution_interval_bound_percentage": 0.01, 
                    "use_social_cost": false
                }
            }
        }
    ], 
    "display_sim_knowledge_only_once": false, 
    "files": {
        "world_file": "../../../worlds/s-namo_cases/05_citi_second_floor/05_citi_second_floor_omniscient.json"
    }, 
    "provide_walls": true
}