<?xml version="1.0" encoding="UTF-8" standalone="no"?>
<svg
   xmlns:dc="http://purl.org/dc/elements/1.1/"
   xmlns:cc="http://creativecommons.org/ns#"
   xmlns:rdf="http://www.w3.org/1999/02/22-rdf-syntax-ns#"
   xmlns:svg="http://www.w3.org/2000/svg"
   xmlns="http://www.w3.org/2000/svg"
   xmlns:sodipodi="http://sodipodi.sourceforge.net/DTD/sodipodi-0.dtd"
   xmlns:inkscape="http://www.inkscape.org/namespaces/inkscape"
   sodipodi:docname="moghaddam_planning_2016_benchmark_05.svg"
   inkscape:version="1.0alpha2 (62cc95fa7e, 2019-08-07)"
   id="svg1304"
   version="1.1"
   viewBox="0 0 210 297"
   height="297mm"
   width="210mm">
  <defs
     id="defs1298" />
  <sodipodi:namedview
     inkscape:window-maximized="0"
     inkscape:window-y="24"
     inkscape:window-x="1920"
     inkscape:window-height="1028"
     inkscape:window-width="1721"
     showgrid="false"
     inkscape:document-rotation="0"
     inkscape:current-layer="layer1"
     inkscape:document-units="mm"
     inkscape:cy="560"
     inkscape:cx="400"
     inkscape:zoom="0.35"
     inkscape:pageshadow="2"
     inkscape:pageopacity="0.0"
     borderopacity="1.0"
     bordercolor="#666666"
     pagecolor="#ffffff"
     id="base" />
  <metadata
     id="metadata1301">
    <rdf:RDF>
      <cc:Work
         rdf:about="">
        <dc:format>image/svg+xml</dc:format>
        <dc:type
           rdf:resource="http://purl.org/dc/dcmitype/StillImage" />
        <dc:title></dc:title>
      </cc:Work>
    </rdf:RDF>
  </metadata>
  <g
     id="layer1"
     inkscape:groupmode="layer"
     inkscape:label="Layer 1">
    <g
       id="g360"
       transform="matrix(0.35277777,0,0,-0.35277777,35.784013,22.692783)">
      <path
         d="M 0,0 H -14.494 V -32.581 H -94.75 v 87.157 h 80.256 V 21.997 H 0 V 64.326 H -101.435 V -42.886 H 0 V 0"
         style="fill:#e6e6e6;fill-opacity:1;fill-rule:evenodd;stroke:none"
         id="path362"
         inkscape:connector-curvature="0" />
    </g>
    <path
       d="m 25.263833,23.772636 h 4.62139 V 13.459178 h -4.62139 z"
       style="fill:#119cb3;fill-opacity:1;fill-rule:nonzero;stroke:none;stroke-width:0.352777"
       id="path368"
       inkscape:connector-curvature="0" />
    <path
       d="m 19.267313,12.867923 h 7.47148 V 8.2518258 h -7.47148 z"
       style="fill:#1c1898;fill-opacity:1;fill-rule:nonzero;stroke:none;stroke-width:0.352777"
       id="path374"
       inkscape:connector-curvature="0" />
    <path
       d="m 15.827023,16.111009 h 2.65289 V 13.65497 h -2.65289 z"
       style="fill:#cfd017;fill-opacity:1;fill-rule:nonzero;stroke:none;stroke-width:0.352777"
       id="path380"
       inkscape:connector-curvature="0" />
    <path
       d="m 20.248743,6.8766978 h 4.2291 v -2.456392 h -4.2291 z"
       style="fill:#bae673;fill-opacity:1;fill-rule:nonzero;stroke:none;stroke-width:0.352777"
       id="path386"
       inkscape:connector-curvature="0" />
    <path
       d="m 19.267313,28.979283 h 7.47148 v -4.811536 h -7.47148 z"
       style="fill:#123ebb;fill-opacity:1;fill-rule:nonzero;stroke:none;stroke-width:0.352777"
       id="path392"
       inkscape:connector-curvature="0" />
    <path
       d="m 15.630533,31.926035 h 2.84938 v -2.750608 h -2.84938 z"
       style="fill:#0a6c8a;fill-opacity:1;fill-rule:nonzero;stroke:none;stroke-width:0.352777"
       id="path398"
       inkscape:connector-curvature="0" />
    <path
       d="m 20.840703,33.203798 h 2.84974 v -2.849033 h -2.84974 z"
       style="fill:#f3351e;fill-opacity:1;fill-rule:nonzero;stroke:none;stroke-width:0.352777"
       id="path404"
       inkscape:connector-curvature="0" />
    <path
       d="m 15.236473,8.8423758 h 3.04659 v -2.949222 h -3.04659 z"
       style="fill:#a51cfb;fill-opacity:1;fill-rule:nonzero;stroke:none;stroke-width:0.352777"
       id="path410"
       inkscape:connector-curvature="0" />
    <path
       d="m 15.827023,23.969134 h 2.65289 v -2.848681 h -2.65289 z"
       style="fill:#3f9bd0;fill-opacity:1;fill-rule:nonzero;stroke:none;stroke-width:0.352777"
       id="path416"
       inkscape:connector-curvature="0" />
    <path
       d="m 4.8150631,19.548123 h 2.35868 v -2.257778 h -2.35868 z"
       style="fill:#00ff00;fill-opacity:1;fill-rule:nonzero;stroke:none;stroke-width:0.352777"
       id="path422"
       inkscape:connector-curvature="0" />
    <path
       d="m 32.538813,19.744267 h 2.35832 v -2.257778 h -2.35832 z"
       style="fill:#ff0000;fill-opacity:1;fill-rule:nonzero;stroke:none;stroke-width:0.352777"
       id="path428"
       inkscape:connector-curvature="0" />
  </g>
</svg>
