<?xml version="1.0" encoding="UTF-8" standalone="no"?>
<svg
   xmlns:dc="http://purl.org/dc/elements/1.1/"
   xmlns:cc="http://creativecommons.org/ns#"
   xmlns:rdf="http://www.w3.org/1999/02/22-rdf-syntax-ns#"
   xmlns:svg="http://www.w3.org/2000/svg"
   xmlns="http://www.w3.org/2000/svg"
   xmlns:sodipodi="http://sodipodi.sourceforge.net/DTD/sodipodi-0.dtd"
   xmlns:inkscape="http://www.inkscape.org/namespaces/inkscape"
   sodipodi:docname="moghaddam_planning_2016_benchmark_11.svg"
   inkscape:version="1.0alpha2 (62cc95fa7e, 2019-08-07)"
   id="svg2873"
   version="1.1"
   viewBox="0 0 210 297"
   height="297mm"
   width="210mm">
  <defs
     id="defs2867" />
  <sodipodi:namedview
     inkscape:window-maximized="0"
     inkscape:window-y="24"
     inkscape:window-x="0"
     inkscape:window-height="1028"
     inkscape:window-width="1721"
     showgrid="false"
     inkscape:document-rotation="0"
     inkscape:current-layer="layer1"
     inkscape:document-units="mm"
     inkscape:cy="560"
     inkscape:cx="400"
     inkscape:zoom="0.35"
     inkscape:pageshadow="2"
     inkscape:pageopacity="0.0"
     borderopacity="1.0"
     bordercolor="#666666"
     pagecolor="#ffffff"
     id="base" />
  <metadata
     id="metadata2870">
    <rdf:RDF>
      <cc:Work
         rdf:about="">
        <dc:format>image/svg+xml</dc:format>
        <dc:type
           rdf:resource="http://purl.org/dc/dcmitype/StillImage" />
        <dc:title></dc:title>
      </cc:Work>
    </rdf:RDF>
  </metadata>
  <g
     id="layer1"
     inkscape:groupmode="layer"
     inkscape:label="Layer 1">
    <g
       id="g132"
       transform="matrix(0.35277777,0,0,-0.35277777,0,28.797602)">
      <path
         d="M 0,0 V 81.631 H 100.345 V -18.507 H 0 v 3.361 H 96.974 V 77.701 H 3.371 V 0 H 0"
         style="fill:#e6e6e6;fill-opacity:1;fill-rule:evenodd;stroke:none"
         id="path134"
         inkscape:connector-curvature="0" />
    </g>
    <g
       id="g140"
       transform="matrix(0.35277777,0,0,-0.35277777,2.374548,10.4909)">
      <path
         d="M 0,0 25.782,21.882 35.591,11.221 7.286,-11.217 0,0"
         style="fill:#d45c13;fill-opacity:1;fill-rule:evenodd;stroke:none"
         id="path142"
         inkscape:connector-curvature="0" />
    </g>
    <path
       d="m 20.960997,8.3142601 h 11.173882 v -5.34493 H 20.960997 Z"
       style="fill:#8e4622;fill-opacity:1;fill-rule:nonzero;stroke:none;stroke-width:0.352777"
       id="path148"
       inkscape:connector-curvature="0" />
    <g
       id="g154"
       transform="matrix(0.35277777,0,0,-0.35277777,8.405284,15.53704)">
      <path
         d="M 0,0 -15.692,-12.619 0.565,-46.282 17.103,-37.028 0,0"
         style="fill:#b27c2f;fill-opacity:1;fill-rule:evenodd;stroke:none"
         id="path156"
         inkscape:connector-curvature="0" />
    </g>
    <g
       id="g162"
       transform="matrix(0.35277777,0,0,-0.35277777,13.053835,17.61631)">
      <path
         d="M 0,0 26.904,19.077 35.591,5.893 5.884,-13.179 0,0"
         style="fill:#1a3322;fill-opacity:1;fill-rule:evenodd;stroke:none"
         id="path164"
         inkscape:connector-curvature="0" />
    </g>
    <path
       d="m 29.564894,32.062206 h 2.769658 v -2.771421 h -2.769658 z"
       style="fill:#00ff00;fill-opacity:1;fill-rule:nonzero;stroke:none;stroke-width:0.352777"
       id="path170"
       inkscape:connector-curvature="0" />
    <path
       d="m 2.178756,5.8384701 h 2.76613 v -2.86914 h -2.76613 z"
       style="fill:#ff0000;fill-opacity:1;fill-rule:nonzero;stroke:none;stroke-width:0.352777"
       id="path176"
       inkscape:connector-curvature="0" />
  </g>
</svg>
