<?xml version="1.0" encoding="UTF-8" standalone="no"?>
<svg
   xmlns:dc="http://purl.org/dc/elements/1.1/"
   xmlns:cc="http://creativecommons.org/ns#"
   xmlns:rdf="http://www.w3.org/1999/02/22-rdf-syntax-ns#"
   xmlns:svg="http://www.w3.org/2000/svg"
   xmlns="http://www.w3.org/2000/svg"
   xmlns:sodipodi="http://sodipodi.sourceforge.net/DTD/sodipodi-0.dtd"
   xmlns:inkscape="http://www.inkscape.org/namespaces/inkscape"
   sodipodi:docname="moghaddam_planning_2016_benchmark_15.svg"
   inkscape:version="1.0alpha2 (62cc95fa7e, 2019-08-07)"
   id="svg3212"
   version="1.1"
   viewBox="0 0 210 297"
   height="297mm"
   width="210mm">
  <defs
     id="defs3206" />
  <sodipodi:namedview
     inkscape:window-maximized="1"
     inkscape:window-y="24"
     inkscape:window-x="0"
     inkscape:window-height="1056"
     inkscape:window-width="1920"
     showgrid="false"
     inkscape:document-rotation="0"
     inkscape:current-layer="layer1"
     inkscape:document-units="mm"
     inkscape:cy="560"
     inkscape:cx="400"
     inkscape:zoom="0.35"
     inkscape:pageshadow="2"
     inkscape:pageopacity="0.0"
     borderopacity="1.0"
     bordercolor="#666666"
     pagecolor="#ffffff"
     id="base" />
  <metadata
     id="metadata3209">
    <rdf:RDF>
      <cc:Work
         rdf:about="">
        <dc:format>image/svg+xml</dc:format>
        <dc:type
           rdf:resource="http://purl.org/dc/dcmitype/StillImage" />
        <dc:title></dc:title>
      </cc:Work>
    </rdf:RDF>
  </metadata>
  <g
     id="layer1"
     inkscape:groupmode="layer"
     inkscape:label="Layer 1">
    <g
       id="g460"
       transform="matrix(0.35277777,0,0,-0.35277777,23.457605,27.282774)">
      <path
         d="m 0,0 h 30.228 v 77.337 h -96.722 v -95.223 h 38.033 V 0 h -13.855 v 49.375 h -4.031 V -3.526 h 14.359 V -14.864 H -62.967 V 74.062 H 26.696 V 3.023 H 0 V 0"
         style="fill:#e6e6e6;fill-opacity:1;fill-rule:evenodd;stroke:none"
         id="path462"
         inkscape:connector-curvature="0" />
    </g>
    <path
       d="m 14.839245,33.592554 h 19.28213 v -1.06609 h -19.28213 z"
       style="fill:#e6e6e6;fill-opacity:1;fill-rule:nonzero;stroke:none;stroke-width:0.352777"
       id="path468"
       inkscape:connector-curvature="0" />
    <path
       d="m 2.130785,9.1542294 h 10.57486 V 2.3992404 H 2.130785 Z"
       style="fill:#02989b;fill-opacity:1;fill-rule:nonzero;stroke:none;stroke-width:0.352777"
       id="path474"
       inkscape:connector-curvature="0" />
    <path
       d="m 14.303735,27.994324 h 8.17527 V 9.8643714 h -8.17527 z"
       style="fill:#eabb4d;fill-opacity:1;fill-rule:nonzero;stroke:none;stroke-width:0.352777"
       id="path480"
       inkscape:connector-curvature="0" />
    <path
       d="m 31.542215,31.281864 h 2.04506 v -2.04329 h -2.04506 z"
       style="fill:#00ff00;fill-opacity:1;fill-rule:nonzero;stroke:none;stroke-width:0.352777"
       id="path486"
       inkscape:connector-curvature="0" />
    <path
       d="m 3.109735,31.104064 h 2.13219 v -2.04153 h -2.13219 z"
       style="fill:#ff0000;fill-opacity:1;fill-rule:nonzero;stroke:none;stroke-width:0.352777"
       id="path492"
       inkscape:connector-curvature="0" />
  </g>
</svg>
