{
    "agents_behaviors": [
        {
            "agent_name": "robot_01", 
            "behavior": {
                "name": "navigation_only_behavior", 
                "navigation_goals": [
                    {
                        "name": "goal_01"
                    }
                ]
            }
        }
    ], 
    "display_sim_knowledge_only_once": false, 
    "files": {
        "world_file": "../../../worlds/s-namo_cases/06_cpe_third_floor/06_cpe_third_floor_no_movables.json"
    }, 
    "provide_walls": true
}